{
  "rip": [
    {
      "id": 1,
      "name": "1",
      "text": "Cats will hate water.",
      "answered": false,
      "points": 1
    },
    {
      "id": 2,
      "name": "1",
      "text": "The year 2020 was a very interesting year.",
      "answered": false,
      "points": 1
    },
    {
      "id": 3,
      "name": "1",
      "text": "I went to Spain next summer.",
      "answered": false,
      "points": 1
    },
    {
      "id": 4,
      "name": "2",
      "text": "Did you help me move this heavy table?",
      "answered": false,
      "points": 2
    },
    {
      "id": 5,
      "name": "2",
      "text": "When did you usually wake up in the morning?",
      "answered": false,
      "points": 2
    },
    {
      "id": 6,
      "name": "2",
      "text": "Will you hear a strange noise outside last evening?",
      "answered": false,
      "points": 2
    },
    {
      "id": 7,
      "name": "3",
      "text": "Yesterday my father doesn't read newspapers because he will be very busy.",
      "answered": false,
      "points": 3
    },
    {
      "id": 8,
      "name": "3",
      "text": "Do you live in Africa when you are a kid?",
      "answered": false,
      "points": 3
    },
    {
      "id": 9,
      "name": "3",
      "text": "He doesn't wash his car yesterday, so it will be dirty now.",
      "answered": false,
      "points": 3
    }
  ],
  "stolen": [
    {
      "id": 1,
      "name": "1",
      "text": "Irina created these sausages in ATB.",
      "answered": false,
      "points": 1
    },
    {
      "id": 2,
      "name": "1",
      "text": "Natalia learns the white car.",
      "answered": false,
      "points": 1
    },
    {
      "id": 3,
      "name": "1",
      "text": "Daria will call a new book.",
      "answered": false,
      "points": 1
    },
    {
      "id": 4,
      "name": "2",
      "text": "She understands me cupcakes every morning.",
      "answered": false,
      "points": 2
    },
    {
      "id": 5,
      "name": "2",
      "text": "Please, get me this pensil from your table.",
      "answered": false,
      "points": 2
    },
    {
      "id": 6,
      "name": "2",
      "text": "Newton bought the telescope in 1668.",
      "answered": false,
      "points": 2
    },
    {
      "id": 7,
      "name": "3",
      "text": "I use that cows stand milk.",
      "answered": false,
      "points": 3
    },
    {
      "id": 8,
      "name": "3",
      "text": "In the past, John cooked tennis and helped in Italy.",
      "answered": false,
      "points": 3
    },
    {
      "id": 9,
      "name": "3",
      "text": "Tomorrow I will listen TV and long music.",
      "answered": false,
      "points": 3
    }
  ],
  "toeng": [
    {
      "id": 1,
      "name": "1",
      "text": "Я буду в кафе в 8 часов.",
      "answered": false,
      "points": 1
    },
    {
      "id": 2,
      "name": "1",
      "text": "Он порезал палец.",
      "answered": false,
      "points": 1
    },
    {
      "id": 3,
      "name": "1",
      "text": "Вода закипает при 100 градусах.",
      "answered": false,
      "points": 1
    },
    {
      "id": 4,
      "name": "2",
      "text": " Я не смог прийти в офис и не открыл его.",
      "answered": false,
      "points": 2
    },
    {
      "id": 5,
      "name": "2",
      "text": "Кто напишет эссе вместо меня?",
      "answered": false,
      "points": 2
    },
    {
      "id": 6,
      "name": "2",
      "text": "Где был Павел, когда это случилось?",
      "answered": false,
      "points": 2
    },
    {
      "id": 7,
      "name": "3",
      "text": "Денис обычно покупает масло в этом магазине, не так ли?",
      "answered": false,
      "points": 3
    },
    {
      "id": 8,
      "name": "3",
      "text": "Он не сделал домашнее задание и не понял материал.",
      "answered": false,
      "points": 3
    },
    {
      "id": 9,
      "name": "3",
      "text": "Он не позволит своему другу стать алкоголиком.",
      "answered": false,
      "points": 3
    }
  ],
  "fromeng": [
    {
      "id": 1,
      "name": "1",
      "text": "I will go to the art museum tomorrow evening.",
      "answered": false,
      "points": 1
    },
    {
      "id": 2,
      "name": "1",
      "text": "Where does she usually celebrate her birthdays?",
      "answered": false,
      "points": 1
    },
    {
      "id": 3,
      "name": "1",
      "text": "Plastic is a material we use every day.",
      "answered": false,
      "points": 1
    },
    {
      "id": 4,
      "name": "2",
      "text": "«The Earth isn't round», — the scientists thought several centuries ago.",
      "answered": false,
      "points": 2
    },
    {
      "id": 5,
      "name": "2",
      "text": "Clara had a car accident when she was ten years old.",
      "answered": false,
      "points": 2
    },
    {
      "id": 6,
      "name": "2",
      "text": "Greenland is a huge island in the far, far north of the world.",
      "answered": false,
      "points": 2
    },
    {
      "id": 7,
      "name": "3",
      "text": "I have a sore throat. My mother will buy me some medicine on her way from work.",
      "answered": false,
      "points": 3
    },
    {
      "id": 8,
      "name": "3",
      "text": "I will not go to the meeting next week. I know everything that my son did.",
      "answered": false,
      "points": 3
    },
    {
      "id": 9,
      "name": "3",
      "text": "The first plastics were made more than 100 years ago from parts of plants.",
      "answered": false,
      "points": 3
    }
  ],
  "cab": [
    {
      "id": 1,
      "name": "1",
      "text": "Choose the correct answer of the verb:\n1. The bear (eat, eats) meat. \n2. Denys (like, likes) low prices. \n3. His brother (answers, answer) phone calls. \n4. My wife and I (goes, go) shopping every trip. \n5. They (drink, drinks) coffee in the office at 3 oclock.",
      "answered": false,
      "points": 1
    },
    {
      "id": 2,
      "name": "1",
      "text": "Make these sentences negative:\n1. Water freezes at 100 degrees. \n2. The Moon is a planet. \n3. I cooked a dinner. \n4. People use one language. \n5. Women are stronger than men.",
      "answered": false,
      "points": 1
    },
    {
      "id": 3,
      "name": "1",
      "text": "Answer the questions:\n1. Does he go to another country every month? (+) \n2. Was she born in 1985? (+) \n3. Did they make this mistake? (-) \n4. Are they interested in this deal? (+) \n5. Will Mary buy a new flat? (-)",
      "answered": false,
      "points": 1
    },
    {
      "id": 4,
      "name": "2",
      "text": "Ask questions and answer them:\n1. Jim will be in Kiev tomorrow. \n2. My sister asked a lot of questions. \n3. Dasha took her bag from the table. \n4. We translate English texts every lesson.",
      "answered": false,
      "points": 2
    },
    {
      "id": 5,
      "name": "2",
      "text": "Translate the verbs into English:\nпокупать, \nводить, \nчувствовать, \nлюбить, \nизготавливать, \nприходить, \nиметь",
      "answered": false,
      "points": 2
    },
    {
      "id": 6,
      "name": "2",
      "text": "Make up sentences:\n1. will, he, help, me, the, with, moving. \n2. was, a, she, lawyer, the, past, in? \n3. Susi, call, yesterday, husband, did, her, to? \n4. won’t, go, he, tomorrow, there. \n5. speak, Jane, French, does, English, and?",
      "answered": false,
      "points": 2
    },
    {
      "id": 7,
      "name": "3",
      "text": "Make tag-questions:\n1. Pavel likes coffee. \n2. Nataly doesnt understand English. \n3. Jessie is a dog. \n4. Dasha made coffee. \n5. Coffee was good. \n6. Denys will drink coffee. \n7. Jessie didn`t drink coffee.",
      "answered": false,
      "points": 3
    },
    {
      "id": 8,
      "name": "3",
      "text": "Translate the verbs into English:\nказаться, \nтрогать, \nвешать, \nтосковать, \nпахнуть, \nпозволять, \nначинать",
      "answered": false,
      "points": 3
    },
    {
      "id": 9,
      "name": "3",
      "text": "Write sentences with these verbs in English:\ndrink, \nuse, \nwant, \nthink",
      "answered": false,
      "points": 3
    }
  ]
}
